ChIPseq_In_Bioconductor3.utf8
…
---
## Gene ontology and functional testing

In addition to gene ontology, we can test our gene list against custom gene sets that we import as gmt files using the clusterProfiler **enricher** function. Similar to the enrichGO function, this will produce an enrichResult object that can be used for visualization. 

Here we will get gene sets from MSigDB using the **msigdbr** package. We can use this package to pull out specific gene sets, which can be seen [at this link](http://software.broadinstitute.org/gsea/msigdb/). We can also run the **msigdbr_collections** function to see the categories and subcategory codes that will be used for accessing the gene sets. 

```r
library(msigdbr)
msigdbr_collections()
```

```
## # A tibble: 22 x 3
##    gs_cat gs_subcat         num_genesets
##    <chr>  <chr>                    <int>
##  1 C1     ""                         299
##  2 C2     "CGP"                     3358
##  3 C2     "CP"                        56
##  4 C2     "CP:BIOCARTA"              292
##  5 C2     "CP:KEGG"                  186
##  6 C2     "CP:PID"                   196
##  7 C2     "CP:REACTOME"             1554
##  8 C2     "CP:WIKIPATHWAYS"          587
##  9 C3     "MIR:MIR_Legacy"           221
## 10 C3     "MIR:MIRDB"               2377
## # … with 12 more rows
```
…
